<?xml version="1.0" encoding="UTF-8" standalone="no"?>
<!-- Created with Inkscape (http://www.inkscape.org/) -->

<svg
   xmlns:dc="http://purl.org/dc/elements/1.1/"
   xmlns:cc="http://creativecommons.org/ns#"
   xmlns:rdf="http://www.w3.org/1999/02/22-rdf-syntax-ns#"
   xmlns:svg="http://www.w3.org/2000/svg"
   xmlns="http://www.w3.org/2000/svg"
   xmlns:sodipodi="http://sodipodi.sourceforge.net/DTD/sodipodi-0.dtd"
   xmlns:inkscape="http://www.inkscape.org/namespaces/inkscape"
   width="11.288889mm"
   height="11.288889mm"
   viewBox="0 0 11.288889 11.288889"
   version="1.1"
   id="svg6297"
   inkscape:version="0.92.4 (5da689c313, 2019-01-14)"
   sodipodi:docname="Icon_Account.svg">
  <defs
     id="defs6291">
    <clipPath
       clipPathUnits="userSpaceOnUse"
       id="clipPath819">
      <path
         id="path821"
         d="m 434.53178,514.44355 c -2.30171,-0.53143 -4.44478,-0.99726 -3.40671,-2.95696 3.15842,-5.96477 0.83729,-9.15464 -2.49782,-9.15464 -3.4007,0 -5.66493,3.31235 -2.4978,9.15464 1.06885,1.97108 -1.15455,2.43691 -3.40673,2.95696 -1.99384,0.46047 -2.12703,1.4343 -2.12703,3.12092 l 0.003,0.83061 h 7.01623 l 0.47119,-2.00789 h 1.0809 l 0.47119,2.00789 h 7.01625 l 0.003,-0.83061 c 6.6e-4,-1.68662 -0.1325,-2.66045 -2.12636,-3.12092 z m -5.50898,1.27434 h -0.77905 l -0.60906,-1.33859 h 2.00387 z"
         inkscape:connector-curvature="0"
         style="fill:#ffffff;stroke-width:0.6692968" />
    </clipPath>
  </defs>
  <sodipodi:namedview
     id="base"
     pagecolor="#ffffff"
     bordercolor="#666666"
     borderopacity="1.0"
     inkscape:pageopacity="0.0"
     inkscape:pageshadow="2"
     inkscape:zoom="15.839192"
     inkscape:cx="25.494106"
     inkscape:cy="17.54182"
     inkscape:document-units="mm"
     inkscape:current-layer="g8301"
     showgrid="false"
     inkscape:window-width="1920"
     inkscape:window-height="1017"
     inkscape:window-x="1912"
     inkscape:window-y="-8"
     inkscape:window-maximized="1" />
  <metadata
     id="metadata6294">
    <rdf:RDF>
      <cc:Work
         rdf:about="">
        <dc:format>image/svg+xml</dc:format>
        <dc:type
           rdf:resource="http://purl.org/dc/dcmitype/StillImage" />
        <dc:title />
      </cc:Work>
    </rdf:RDF>
  </metadata>
  <g
     inkscape:label="Ebene 1"
     inkscape:groupmode="layer"
     id="layer1"
     transform="translate(225.62658,-1.8257897)">
    <g
       inkscape:export-filename="C:\Users\Marzec_Bartlomiej\Desktop\bitmap.png"
       transform="matrix(0.56444444,0,0,0.56444444,-461.88105,-279.41022)"
       inkscape:export-ydpi="500"
       inkscape:export-xdpi="500"
       id="g8301"
       style="display:inline">
      <circle
         style="display:inline;fill:#0084ad;fill-opacity:1;stroke:none"
         id="circle8303"
         cx="428.56107"
         cy="508.25278"
         r="10" />
      <circle
         style="display:inline;fill:#ffffff;fill-opacity:1;stroke:none"
         id="circle8303-4"
         cx="428.56107"
         cy="508.25278"
         r="10"
         clip-path="url(#clipPath819)"
         transform="translate(0.02099667,-0.34734312)" />
    </g>
  </g>
</svg>
