<?xml version="1.0" encoding="UTF-8" standalone="no"?>
<!-- Created with Inkscape (http://www.inkscape.org/) -->

<svg
   xmlns:dc="http://purl.org/dc/elements/1.1/"
   xmlns:cc="http://creativecommons.org/ns#"
   xmlns:rdf="http://www.w3.org/1999/02/22-rdf-syntax-ns#"
   xmlns:svg="http://www.w3.org/2000/svg"
   xmlns="http://www.w3.org/2000/svg"
   xmlns:sodipodi="http://sodipodi.sourceforge.net/DTD/sodipodi-0.dtd"
   xmlns:inkscape="http://www.inkscape.org/namespaces/inkscape"
   width="11.288889mm"
   height="11.288889mm"
   viewBox="0 0 11.288889 11.288889"
   version="1.1"
   id="svg6188"
   inkscape:version="0.92.4 (5da689c313, 2019-01-14)"
   sodipodi:docname="Icon_AB.svg">
  <defs
     id="defs6182" />
  <sodipodi:namedview
     id="base"
     pagecolor="#ffffff"
     bordercolor="#666666"
     borderopacity="1.0"
     inkscape:pageopacity="0.0"
     inkscape:pageshadow="2"
     inkscape:zoom="0.35"
     inkscape:cx="1.3333329"
     inkscape:cy="901.33335"
     inkscape:document-units="mm"
     inkscape:current-layer="layer1"
     showgrid="false"
     inkscape:window-width="1920"
     inkscape:window-height="1017"
     inkscape:window-x="-8"
     inkscape:window-y="-8"
     inkscape:window-maximized="1" />
  <metadata
     id="metadata6185">
    <rdf:RDF>
      <cc:Work
         rdf:about="">
        <dc:format>image/svg+xml</dc:format>
        <dc:type
           rdf:resource="http://purl.org/dc/dcmitype/StillImage" />
        <dc:title></dc:title>
      </cc:Work>
    </rdf:RDF>
  </metadata>
  <g
     inkscape:label="Ebene 1"
     inkscape:groupmode="layer"
     id="layer1"
     transform="translate(-105.48056,-376.02223)">
    <g
       inkscape:export-filename="C:\Users\Marzec_Bartlomiej\Desktop\bitmap.png"
       inkscape:export-ydpi="500"
       inkscape:export-xdpi="500"
       transform="matrix(0.22577778,0,0,0.22577778,-32.832475,273.316)"
       id="g8287"
       style="display:inline">
      <circle
         r="25"
         cy="203.52071"
         cx="435.65573"
         style="display:inline;fill:#9dc340;fill-opacity:1;stroke:none"
         id="circle8289"
         transform="translate(201.95119,276.37891)" />
      <g
         id="g8291"
         transform="matrix(1.031774,0,0,1.031774,-20.655032,-15.003443)">
        <path
           inkscape:connector-curvature="0"
           id="path8293"
           d="m 635.82994,492.55282 v -14.9329 l -10.84821,-10.8482"
           style="display:inline;fill:none;stroke:#ffffff;stroke-width:1.625;stroke-linecap:round;stroke-linejoin:miter;stroke-miterlimit:4;stroke-dasharray:none;stroke-opacity:1" />
        <path
           inkscape:connector-curvature="0"
           id="path8295"
           d="m 622.15095,469.60251 9.63228,9.63229"
           style="display:inline;fill:none;stroke:#ffffff;stroke-width:1.625;stroke-linecap:round;stroke-linejoin:miter;stroke-miterlimit:4;stroke-dasharray:none;stroke-opacity:1" />
        <path
           inkscape:connector-curvature="0"
           id="path8297"
           d="m 640.15095,492.55282 v -14.9329 l 10.84821,-10.8482"
           style="display:inline;fill:none;stroke:#ffffff;stroke-width:1.625;stroke-linecap:round;stroke-linejoin:miter;stroke-miterlimit:4;stroke-dasharray:none;stroke-opacity:1" />
        <path
           inkscape:connector-curvature="0"
           id="path8299"
           d="m 653.82994,469.60251 -9.63228,9.63229"
           style="display:inline;fill:none;stroke:#ffffff;stroke-width:1.625;stroke-linecap:round;stroke-linejoin:miter;stroke-miterlimit:4;stroke-dasharray:none;stroke-opacity:1" />
      </g>
    </g>
  </g>
</svg>
